¿Cómo realizar la limpieza y análisis de datos?
…
El modelo podria mejorarse sesgando a minimizar los falos negativos,
ya que no queremos que se nos escapen del diagnostico pacientes que
puedan desarrollar una enfermedad cardiaca.

4.4 Random Forest

Nos interesa saber para las predicciones que variable son las que
tienen más influencia. Así, probaremos con un enfoque algorítmico de
Random Forest y obtendremos métricas de interpretabilidad con la
librería IML (https://cran.r-project.org/web/packages/iml/iml.pdf).
As:

train_X

## # A tibble: 541 x 4
##    TIPO_DOLOR_TORAX ANGINA_x_EJERCICIO OLDPEAK PENDIENTE_ST
##    <fct>            <fct>              <fct>   <fct>       
##  1 2                0                  2.5     1           
##  2 1                0                  1.1     0           
##  3 1                0                  0       0           
##  4 1                0                  2       0           
##  5 2                1                  0       1           
##  6 3                0                  0.8     0           
##  7 1                0                  0       0           
##  8 3                1                  1.2     1           
##  9 1                0                  0       0           
## 10 3                0                  0       0           
## # ... with 531 more rows
…
